"Id","SalePrice"
1461,125002.01147697787
1462,157521.67260216098
1463,193943.91902778964
1464,191502.88126943927
1465,188864.12323950152
1466,174879.18813322406
1467,168204.43958280902
1468,171318.42502592425
1469,186570.64307020526
1470,128735.16942833285
1471,195775.11350487094
1472,98413.56654547076
1473,97837.23561666827
1474,149737.90721939426
1475,143871.79325531345
1476,364167.1967563472
1477,256610.35216711383
1478,303815.10541723587
1479,265793.8635082088
1480,502255.5199718318
1481,337537.79166601517
1482,208581.3367137752
1483,176248.14903114657
1484,168368.85562942844
1485,173070.94958351474
1486,198237.11467932086
1487,362296.094400867
1488,242205.13210485797
1489,203258.0547065578
1490,219744.4153327785
1491,188690.63781736713
1492,106668.85989187579
1493,164077.84052131991
1494,289518.09715507843
1495,284794.30527351715
1496,243404.10976408343
1497,186873.8434791408
1498,161751.97620962482
1499,164267.84885404925
1500,165653.40443991046
1501,176134.32818792682
1502,164536.44684789996
1503,295206.3277416072
1504,228099.76617239337
1505,233991.69471739154
1506,187891.09402893405
1507,242716.32430504184
1508,202918.6978440128
1509,168215.70003698688
1510,146678.32516907077
1511,143825.2888417087
1512,162834.85026787143
1513,140439.00158499103
1514,157709.55780647616
1515,181697.1265988193
1516,160598.6647705875
1517,157683.82356499057
1518,127145.96336601596
1519,206271.39095352512
1520,139430.77806137424
1521,139973.35326813083
1522,160177.6378159366
1523,120452.71469353061
1524,128134.48375938754
1525,127918.09938667636
1526,121614.31381700854
1527,110686.89040563922
1528,137962.3381085239
1529,144380.24451683383
1530,168990.46118210178
1531,117255.10915373187
1532,110196.8627304874
1533,127315.44264267306
1534,112570.09969185214
1535,157821.97456405978
1536,117333.2126736484
1537,77300.01630209308
1538,175211.07982109408
1539,225434.44324682574
1540,100358.56917379718
1541,142630.545297607
1542,140858.14991758685
1543,203738.63070486407
1544,85678.31875608783
1545,111365.2030811153
1546,125285.5892429195
1547,139502.4178504787
1548,139690.84578894
1549,114668.30799101215
1550,142524.37648008685
1551,116051.20477722507
1552,119939.28802727084
1553,142605.81855200152
1554,110741.35888861041
1555,192827.27476595264
1556,127633.76433180194
1557,113659.12338493686
1558,92312.60801504474
1559,111821.96825216632
1560,151414.7190975986
1561,136360.8557548366
1562,130213.74852226596
1563,127266.48516128879
1564,154029.79183052402
1565,149526.70799063068
1566,216366.49076317172
1567,88444.39813040118
1568,231248.84923027377
1569,147614.2663063846
1570,134152.40998457294
1571,124109.97242735248
1572,141376.6880001865
1573,215765.15143059116
1574,108060.9415035091
1575,218215.16229246478
1576,217548.85809515338
1577,193033.70595405917
1578,148012.96969984393
1579,143584.2475781284
1580,186866.03907059054
1581,140966.18992851596
1582,136423.19497154574
1583,306213.2074112735
1584,226543.2486023746
1585,144856.6584019504
1586,73668.75196646075
1587,96324.75234983783
1588,144019.38117073398
1589,93099.26610372882
1590,127526.21293686252
1591,104499.27133415561
1592,126067.50606010776
1593,130853.79188965182
1594,147797.41307638507
1595,122161.75673483234
1596,252957.44113348346
1597,206239.62952421527
1598,205850.45854996066
1599,203771.30850265842
1600,197149.3368573032
1601,72611.15624235492
1602,109557.04053114276
1603,86367.46298216205
1604,288359.79502676346
1605,241061.2799897037
1606,166672.28308723788
1607,157731.85265587192
1608,210695.56068466525
1609,187925.8506741367
1610,168344.7726135097
1611,135147.89427421908
1612,149229.21106003146
1613,143743.43335960727
1614,117884.81065796237
1615,89191.07593534808
1616,78325.64047048907
1617,87742.78035734515
1618,128163.09966705661
1619,133512.17009209018
1620,142450.1739024959
1621,134474.6006011806
1622,142069.40806244235
1623,267695.15471886017
1624,196585.18593071323
1625,128163.84672640185
1626,156996.34577415805
1627,187869.2841243587
1628,273412.85653875687
1629,175724.9691963039
1630,391245.69305990555
1631,220126.400974258
1632,260667.18971060138
1633,170680.38541410785
1634,181284.60546301227
1635,186079.3070049129
1636,157370.85624311786
1637,189724.0517654262
1638,206181.52159546237
1639,178536.8998513065
1640,239328.13457916598
1641,180189.707676395
1642,242416.23373983722
1643,224972.65631674152
1644,216701.81108282428
1645,187063.37331055026
1646,160472.183533176
1647,165374.09915016513
1648,135752.86088035922
1649,141616.8270954929
1650,121873.18340538364
1651,124910.54614113193
1652,100173.45786093097
1653,98792.60021208148
1654,151113.04609535556
1655,161164.30435036044
1656,147153.18182991366
1657,149643.2491593204
1658,146159.31592796664
1659,149671.4188771091
1660,154923.39608429294
1661,496028.9787311397
1662,383903.15050314285
1663,351552.4497165523
1664,501470.0375804744
1665,310013.7993259273
1666,310253.371393188
1667,374694.2213077388
1668,328441.51841162064
1669,299172.9946384273
1670,328724.31304357864
1671,268935.1864414058
1672,472382.6184520564
1673,294209.81679724075
1674,249172.95060919147
1675,189632.42807386737
1676,193279.90428541522
1677,214787.72205351215
1678,479068.91420553543
1679,419797.0902843318
1680,330180.0294589839
1681,278485.36970327713
1682,299629.8119754634
1683,189135.95019148212
1684,168517.63681791644
1685,179218.9636230312
1686,175434.96785591464
1687,166576.08869932513
1688,183778.36145017963
1689,190831.91584776263
1690,188050.54187963824
1691,174718.31965063434
1692,253984.4357929073
1693,171523.7314529262
1694,187631.8643474422
1695,164744.5024032436
1696,257349.62087438922
1697,169853.72856138568
1698,370462.5607552371
1699,313823.1786522708
1700,261297.4981980167
1701,268222.6608376346
1702,258565.86177252154
1703,243591.21831701617
1704,302483.397111877
1705,231316.4479789577
1706,453356.7635478816
1707,215123.36466978412
1708,207482.15397261005
1709,269926.921632751
1710,222401.08166311603
1711,237795.3696384273
1712,254230.0638637386
1713,265185.7271976314
1714,227157.5957298122
1715,205044.1885146938
1716,177497.34071157794
1717,171968.00259016376
1718,137768.03440473895
1719,209514.25728033404
1720,260161.99043653827
1721,164031.23152922015
1722,128509.49295042377
1723,154630.96895407062
1724,201935.77034948688
1725,227825.81308172565
1726,192556.12815855365
1727,169168.71881674152
1728,182306.37588499408
1729,158565.36701200824
1730,167494.39912794452
1731,121723.23750542026
1732,124753.96592186313
1733,121167.9486012302
1734,119931.12726257663
1735,138409.13610313754
1736,119590.5375943027
1737,359816.18134115555
1738,220260.2068848453
1739,322519.2901096187
1740,210232.73148916583
1741,187501.61345098834
1742,177271.09074591022
1743,170585.54970739703
1744,310611.220460876
1745,234520.13797949176
1746,267939.37915609695
1747,208620.01642607074
1748,223202.00380943637
1749,159378.45287369113
1750,137192.68878219943
1751,228551.31845520358
1752,122767.04755638461
1753,132237.35232017856
1754,202959.7128929935
1755,163921.4004983745
1756,124276.92532585483
1757,122511.87986229282
1758,151118.0832218967
1759,161166.71654175143
1760,159290.55293892245
1761,145207.192882999
1762,176315.45379637103
1763,172125.5655770145
1764,124678.1890435062
1765,157365.40078209262
1766,161960.79430244784
1767,190869.6912827335
1768,150101.44513939242
1769,173668.67709968906
1770,140173.575487598
1771,133634.30276535373
1772,141458.42722938876
1773,135862.7606148563
1774,128390.95012138705
1775,142010.49143455844
1776,129394.99539612155
1777,120240.19799660068
1778,141930.7377934299
1779,122889.93332098346
1780,168827.95268247943
1781,138583.7689804874
1782,87801.92971275668
1783,127917.09419439654
1784,96190.20681188922
1785,119902.65905426364
1786,137958.3934273563
1787,164838.71627233844
1788,62588.10684011798
1789,96853.90137480121
1790,88040.0881213985
1791,163527.7878136478
1792,152213.83296058993
1793,127353.09315536838
1794,146210.08039329867
1795,139843.59387634616
1796,134118.2092971645
1797,126557.46442840915
1798,126380.09086273532
1799,125098.54618261676
1800,132912.53818128924
1801,132621.64219902377
1802,140490.3097214542
1803,144346.38007162433
1804,143041.10264824252
1805,132804.63523720126
1806,115118.95975349765
1807,129476.54587791782
1808,112104.65948294025
1809,117377.24724005084
1810,148312.93456838946
1811,102998.29621122699
1812,107601.84530876498
1813,118385.0807247005
1814,97804.34273193698
1815,62207.23805044513
1816,98758.12680815082
1817,116159.98036001544
1818,145964.0410733066
1819,111289.3422946773
1820,67273.28235433917
1821,111773.71130035739
1822,148373.59266851764
1823,44107.80830190997
1824,137598.71760557513
1825,131119.72962187152
1826,98326.67371939044
1827,113565.9093990169
1828,136524.48098753314
1829,116177.9420604549
1830,132201.22853515964
1831,164041.1645526729
1832,91187.28149221759
1833,131793.60239027362
1834,121185.65977667194
1835,129910.2933907352
1836,125205.71619413715
1837,103284.88351629596
1838,121109.0535812221
1839,96281.6542453609
1840,144904.59392593722
1841,142181.46911095004
1842,83107.09444998126
1843,130953.1323914371
1844,135187.73066137652
1845,138663.36079262118
1846,160458.10563324313
1847,181261.15175102573
1848,76194.4381389461
1849,109320.88482855182
1850,120349.39911125522
1851,155142.23858831744
1852,127945.38304947238
1853,127324.43615578036
1854,168458.1211128078
1855,152858.41332624774
1856,221899.2390537105
1857,178347.04337499957
1858,138105.57299612384
1859,129134.29944990497
1860,154768.8238258205
1861,129134.29944990497
1862,271699.49244879105
1863,266982.7882709346
1864,266982.7882709346
1865,311576.45942543366
1866,311383.87084816315
1867,238186.17650268893
1868,271094.20312736847
1869,198241.76391647678
1870,238361.28116081576
1871,257118.5242562137
1872,169276.07323835712
1873,245420.37947367053
1874,143426.62570618014
1875,203896.4621052585
1876,199908.04984138827
1877,206296.16861770969
1878,212611.99490974765
1879,132144.60897491794
1880,140055.52702568393
1881,229381.19054077487
1882,244554.42492149692
1883,201859.80151985507
1884,208852.792410358
1885,253019.8257031284
1886,272493.74554680206
1887,205637.15219925265
1888,281801.7506031833
1889,161502.59452055316
1890,134272.58138511996
1891,140365.2253789745
1892,105321.27360199313
1893,138308.8966832004
1894,122843.03762291293
1895,143577.00011490207
1896,120236.24147413592
1897,112053.33415649753
1898,115315.32633970599
1899,168499.09755705218
1900,164848.40261648517
1901,184155.83921812396
1902,151398.00531433444
1903,232861.03441618304
1904,149919.22370909076
1905,200248.56688307147
1906,168012.20124815326
1907,204273.0661983333
1908,117414.06841657977
1909,136612.34238241534
1910,131412.7689819179
1911,201166.8400592647
1912,289191.21163748123
1913,145711.23631094318
1914,62745.570381148864
1915,353786.25039480545
1916,77417.91099165301
1917,256624.90505836825
1918,140714.19549797397
1919,162989.58839653354
1920,136132.27646110873
1921,411970.0031380496
1922,311831.26260994293
1923,211876.74824713092
1924,234347.59684990268
1925,225253.76037453036
1926,374519.1820435367
1927,135144.0964665256
1928,147397.17574356418
1929,127586.56009910922
1930,130740.46456335406
1931,141059.67854736667
1932,138170.71350477557
1933,173572.7287387691
1934,182627.23998831134
1935,174499.1213130794
1936,191910.99654959064
1937,181287.6257634006
1938,172653.91367386203
1939,263644.998510345
1940,187119.31972692828
1941,176647.77495573382
1942,191042.45527647357
1943,190140.9916648708
1944,326000.4515056453
1945,406946.01143835403
1946,178334.06790779452
1947,349422.65955923416
1948,187133.72180937152
1949,239752.40233276706
1950,180111.54848717074
1951,252804.29823158603
1952,227774.67484901767
1953,162084.7620110355
1954,189781.13167570453
1955,142586.9388294063
1956,323479.9347576938
1957,166359.8686375461
1958,275203.55527733185
1959,137155.3035912357
1960,123000.07729004245
1961,122424.76429222446
1962,97981.00206564288
1963,102249.65273855548
1964,105723.06963919025
1965,149523.32377670627
1966,161821.89870498996
1967,309055.74315069534
1968,447585.0978832088
1969,389221.1794376216
1970,452103.77980612137
1971,428949.39462087967
1972,349335.9201221309
1973,272257.6823520503
1974,301331.6010646663
1975,499282.8504257045
1976,276915.3100299678
1977,342932.3362331233
1978,386245.7025852046
1979,320666.3908023677
1980,198241.8247871242
1981,326924.70770452835
1982,233960.29326437335
1983,213374.57071493487
1984,173210.5637664638
1985,206393.1784825168
1986,204702.79048775058
1987,187469.2115082584
1988,178287.34219358783
1989,183780.4800720058
1990,215689.60921667438
1991,226041.3133697353
1992,199934.83455084186
1993,167776.95827482562
1994,230047.64353369098
1995,177364.32440183978
1996,254916.98608635287
1997,371403.2725395999
1998,351106.3212723575
1999,297535.1898293338
2000,309208.7914185367
2001,279410.9864487491
2002,239904.2674484096
2003,242261.97478674274
2004,245780.40347479205
2005,240699.4338950954
2006,220138.77249334674
2007,239307.45701788287
2008,210442.84590528827
2009,185295.67096708636
2010,188940.26779173236
2011,146806.71618650775
2012,174133.75204847674
2013,183948.41855810504
2014,184723.12145994525
2015,195158.99300382953
2016,188648.10543821673
2017,204620.49413870196
2018,126522.09948585849
2019,134801.93399475436
2020,123628.48027847629
2021,115077.35115478854
2022,196010.61260794025
2023,137561.0770287357
2024,232959.89122246127
2025,415456.5433869205
2026,183626.1692237697
2027,157811.3405608974
2028,158821.28289793353
2029,177561.09859560351
2030,276133.3679733119
2031,255955.90322874408
2032,280685.51471708633
2033,269972.0620345912
2034,170625.3527622066
2035,212087.18474768024
2036,194552.64366148334
2037,207649.24937437396
2038,312847.68635366776
2039,226924.22896383624
2040,383730.9645309291
2041,276469.44040869095
2042,204567.1857547603
2043,173723.89492653232
2044,178454.86158226352
2045,209927.59770248752
2046,155172.25070618014
2047,151409.04260443072
2048,138109.56481407504
2049,127924.9824166141
2050,179773.6520676456
2051,117087.38455007892
2052,136198.98454521518
2053,148809.22303627353
2054,75877.60027883868
2055,154714.5279145084
2056,141449.8850002132
2057,124096.53416107516
2058,210902.07390831332
2059,127953.14954231601
2060,165709.31355903964
2061,168369.66439102512
2062,138017.01160858493
2063,120346.73026655536
2064,139050.14196632724
2065,128863.22098205905
2066,160446.9718656383
2067,124915.90541647296
2068,134924.11459587436
2069,77601.9285964809
2070,106151.85125730853
2071,94513.28353308063
2072,119535.375147327
2073,137525.18601082187
2074,170817.07757614474
2075,150702.90189407687
2076,127659.79975746493
2077,153640.3742451511
2078,126767.83701752048
2079,134008.80668447833
2080,126568.30243347507
2081,129078.93787048678
2082,124147.44059227328
2083,145855.20731924396
2084,120297.10124634128
2085,128499.5923638187
2086,108886.91614340167
2087,112798.80805395465
2088,103020.20330999713
2089,91367.69025228839
2090,123964.36368749957
2091,120182.20743797641
2092,120585.04355285983
2093,133522.93362663608
2094,119045.56086586337
2095,142554.1296658359
2096,81188.61493681293
2097,98617.9571208797
2098,139327.39385841708
2099,62068.168912871886
2100,101496.60660360675
2101,122083.62452553134
2102,131176.4255218349
2103,100027.20730017047
2104,130258.42753837924
2105,129002.10581396442
2106,71410.40820883136
2107,216420.55292747836
2108,115690.81390045505
2109,112136.98999641757
2110,130083.5279941402
2111,160648.77350424152
2112,139503.62904165607
2113,121233.44197080951
2114,98875.14831350665
2115,157252.67171476703
2116,124155.2516155086
2117,146271.2957210384
2118,117404.78281973224
2119,109679.62033842425
2120,112445.26123236041
2121,103656.68873022418
2122,95334.25488661151
2123,84981.5868663631
2124,165454.73861502032
2125,122269.77018974643
2126,166212.47124288898
2127,146910.61283539157
2128,120993.55012176852
2129,104987.7931213222
2130,131181.62407110553
2131,145459.16573332172
2132,110035.59297941547
2133,113874.94099424701
2134,109737.96176908832
2135,105924.52027891498
2136,75379.99167440753
2137,118290.2984146915
2138,136177.37733505588
2139,156098.74583862643
2140,138273.49125526767
2141,129966.16274450641
2142,132124.1155037723
2143,132243.57726524692
2144,114091.22535560947
2145,138222.81535957675
2146,164787.49310158115
2147,175733.5350971065
2148,137826.23843954425
2149,130803.8698448978
2150,232393.61736772876
2151,124925.55354116778
2152,158675.3598637424
2153,157057.87427376132
2154,107149.3502316318
2155,116275.58369444232
2156,260515.71985815387
2157,219820.1006049953
2158,228780.0291004024
2159,212992.27774999957
2160,174507.18340299945
2161,240069.86472938876
2162,347163.1225838504
2163,294906.81924675324
2164,265702.75423811295
2165,184052.7378601871
2166,146531.22697113376
2167,209190.46062897067
2168,212281.76026771884
2169,199052.99865721088
2170,214945.0969681583
2171,153646.5629334293
2172,141984.8666443668
2173,168879.53636978488
2174,243547.7113556705
2175,290724.36163948395
2176,285245.3019928775
2177,245189.02032326083
2178,217784.87689827304
2179,145763.50164078097
2180,218038.28675697665
2181,193211.7823700748
2182,218653.25854347568
2183,192842.69241951327
2184,121066.0569996677
2185,119037.40205763202
2186,129392.95308922153
2187,144061.9072995029
2188,149046.245347961
2189,186288.1005458675
2190,79003.28712271075
2191,81679.7034892879
2192,90599.82923124652
2193,105788.6093196712
2194,98920.53569601398
2195,108665.40573547702
2196,105862.49648283343
2197,119293.33416221957
2198,158246.20228241305
2199,169390.87262009006
2200,149376.2947254024
2201,154518.505924686
2202,212725.5001010738
2203,168128.61001203876
2204,206128.56324957233
2205,144585.8734779201
2206,138647.5480708919
2207,231663.89095304828
2208,247702.16488455157
2209,217160.24307106357
2210,122885.05327795367
2211,115895.42655943256
2212,107640.7517528377
2213,104154.93560789447
2214,121090.29314230304
2215,100336.4300594173
2216,138951.94082449298
2217,78286.60384939532
2218,89781.51669309955
2219,73583.35320089679
2220,70876.26683042865
2221,353786.25039480545
2222,269312.1277370296
2223,217601.0051674686
2224,196760.74912880282
2225,130838.63396261554
2226,166742.64966057162
2227,190619.08193443637
2228,277471.18822716095
2229,235859.06106041293
2230,169370.0471801601
2231,203690.2401547275
2232,186327.93992851596
2233,174155.94773147922
2234,259075.33207558017
2235,213552.21801613193
2236,275335.15667198517
2237,341445.18796776154
2238,197494.4690422855
2239,106250.26397894244
2240,163275.3084025226
2241,159426.69582794528
2242,123187.52433060031
2243,129658.70531843524
2244,99583.32796285968
2245,96484.7002219997
2246,150217.40760467868
2247,102317.61617468219
2248,126133.01978920322
2249,128384.42993973117
2250,134807.67263649325
2251,112646.483192905
2252,162603.12628410678
2253,158580.52941892963
2254,175682.02915190082
2255,187458.56190489154
2256,179932.93553350787
2257,192162.9566898189
2258,165904.59714125018
2259,173936.46839140277
2260,168438.81942365985
2261,193836.97640417438
2262,202873.99014662128
2263,336585.04281423904
2264,475297.4373912654
2265,182850.2811946712
2266,340740.81728361466
2267,396313.9975108943
2268,402106.6881427608
2269,147860.5640873752
2270,180021.84365843158
2271,225946.23203323703
2272,198678.98607443194
2273,162607.76096199374
2274,177752.98830078464
2275,180129.19842766147
2276,186802.0947251163
2277,201085.17467163425
2278,148305.96027992587
2279,131254.84651611667
2280,119758.88589714389
2281,164428.37134598117
2282,171712.82844780307
2283,102515.81793211322
2284,113739.25098989825
2285,164154.02257583957
2286,130331.49621055942
2287,353426.1105251155
2288,278074.5034961543
2289,404594.87943075516
2290,444801.4622211299
2291,315950.5141010127
2292,400196.66810415604
2293,496180.6355113826
2294,425810.00834844925
2295,469082.2021846614
2296,316618.99120519974
2297,312243.9547290645
2298,333147.4782657466
2299,424632.5812320552
2300,321589.3998470149
2301,266628.99566076614
2302,233922.6756076656
2303,242777.69584844928
2304,250308.9706592403
2305,197394.3459892116
2306,185804.62346266131
2307,185757.1380119167
2308,226197.84434316974
2309,288385.24274633743
2310,223561.56924246173
2311,197861.52913282733
2312,168714.42153166156
2313,177696.8144912563
2314,168447.4262699924
2315,177836.2129058681
2316,191828.80975530963
2317,178801.1234779201
2318,182335.42710111957
2319,170380.9383392177
2320,177567.84861944537
2321,264727.2431874118
2322,174386.22393654208
2323,174950.94690941196
2324,173312.51096342425
2325,216973.4899082027
2326,163659.4091987453
2327,214461.93276403766
2328,222268.81324957233
2329,186134.86086653094
2330,175790.810714706
2331,373734.424730762
2332,478865.80000160553
2333,308084.4566025577
2334,261813.5574631534
2335,293332.000235065
2336,332032.2453369937
2337,206633.27646253924
2338,287933.9026889644
2339,220015.02762029986
2340,348548.00626562454
2341,216823.25745199542
2342,240298.81304548602
2343,230292.1551551662
2344,231027.11692236285
2345,228929.52263067584
2346,218990.3510799251
2347,204876.76891706805
2348,222681.5560474239
2349,172640.2391357265
2350,253914.5434779964
2351,251855.4395274959
2352,250636.31070898395
2353,230819.48982809405
2354,121831.50876425128
2355,152180.73933027606
2356,152305.04492376666
2357,197001.39425848346
2358,200798.0844821773
2359,134973.18331144672
2360,118070.97482536655
2361,132205.3350968204
2362,277392.3778133235
2363,136499.53232429843
2364,153132.49305580478
2365,206585.45589445453
2366,197185.0673503719
2367,220953.31891439777
2368,220240.7603454433
2369,218160.69878195148
2370,174452.6689386211
2371,171137.9851550899
2372,195499.1109428249
2373,267028.6707382045
2374,296041.20658682205
2375,249588.50040243487
2376,302096.96808622696
2377,408392.6713619075
2378,147406.31687210422
2379,201163.0660443149
2380,141057.68260238986
2381,168101.81557510715
2382,185862.15153740268
2383,197060.41556785922
2384,233602.41440056186
2385,161594.60048340182
2386,133163.4956650577
2387,145737.76120613437
2388,110087.94820211749
2389,136619.6758541904
2390,149714.79997681003
2391,140641.05353020053
2392,122916.0964627109
2393,168580.9157204471
2394,141488.78224228244
2395,197511.09664772372
2396,143718.4193672977
2397,204196.60431717258
2398,130584.13875816684
2399,59154.11746977191
2400,63608.740957244445
2401,100325.17287634235
2402,143540.65183113437
2403,127653.03885887485
2404,145862.20245598178
2405,159327.34985397678
2406,137225.68751953464
2407,132737.88108299594
2408,142563.41199348788
2409,133379.26023338657
2410,160699.4659523807
2411,126338.45897339206
2412,157551.87083671908
2413,139396.1068749271
2414,141276.907852634
2415,125087.63499687533
2416,130396.54279564242
2417,126660.19263122897
2418,132005.7434601627
2419,122758.00622795444
2420,129136.56070946078
2421,152910.9933113895
2422,106984.76519630771
2423,115627.68529365878
2424,144958.49174736362
2425,178784.25577352862
2426,127106.87711380344
2427,135792.73581884723
2428,169050.17594717364
2429,119845.89428375583
2430,132683.24796913486
2431,122083.97413633685
2432,141154.8662724338
2433,146129.37449119907
2434,141341.8122868381
2435,147755.3350338779
2436,114546.90715025287
2437,121892.37539146762
2438,128300.02487610202
2439,103475.67953155856
2440,117919.38310669284
2441,102217.8738140903
2442,104943.8644757114
2443,124902.64642761569
2444,127983.28806112628
2445,81164.25672911029
2446,116593.3104824863
2447,196212.69935797076
2448,130875.36006162982
2449,110149.17717741351
2450,149418.39049576144
2451,126227.46865270953
2452,211532.6028942905
2453,88521.21930693011
2454,118784.99848745685
2455,107980.60232542377
2456,136140.16216276507
2457,115200.21063230853
2458,112733.39344213824
2459,110771.04048918109
2460,141660.34518240314
2461,116001.5905608974
2462,130864.25289915423
2463,120606.04118154864
2464,154482.84240196567
2465,128236.43359373431
2466,111476.13489340167
2467,139211.3431491695
2468,84313.58414266925
2469,80774.918470367
2470,176449.68409727435
2471,183633.46720312457
2472,162575.8474483333
2473,109781.23549078326
2474,95730.96606253009
2475,208632.29198501926
2476,120719.25613973956
2477,132401.04886673312
2478,148230.93315170627
2479,111470.15286682468
2480,130005.96705864291
2481,113268.80979011874
2482,128039.17227743487
2483,118327.21872185092
2484,120349.95596550326
2485,128517.80577324252
2486,148430.90512750964
2487,167764.08471487384
2488,150627.87955473285
2489,149881.88981674533
2490,150863.02832697253
2491,96694.90064237933
2492,178245.95496033053
2493,141921.773857101
2494,157025.58168648105
2495,97244.19286583285
2496,236260.5373043857
2497,148451.7820019565
2498,114052.72797630649
2499,91934.73325346332
2500,114626.10844848971
2501,135453.9340119205
2502,142708.3626675449
2503,94696.470560535
2504,187458.13678739886
2505,219097.71193884235
2506,244510.3412537418
2507,272967.4162239871
2508,246214.50006721835
2509,218386.3316063724
2510,224994.5832962833
2511,183284.36701820712
2512,213672.6216416202
2513,218298.33627889972
2514,243685.59231422763
2515,149060.48034714084
2516,170271.7937450252
2517,138835.18204925876
2518,141840.4492764316
2519,222519.9930100284
2520,205409.18700264316
2521,189673.7585644565
2522,221622.77346657138
2523,126189.61825226169
2524,139247.31399582248
2525,153275.99582718234
2526,142148.72135971408
2527,117675.8221344791
2528,135539.7209877811
2529,143215.84836243014
2530,128044.91107557635
2531,236412.01174782138
2532,224243.42755745273
2533,204261.26403663974
2534,237675.06218384128
2535,335631.7778382144
2536,235293.6932396732
2537,222165.49738167148
2538,182909.88146971088
2539,188555.77452324252
2540,176528.59842537265
2541,183081.0505142055
2542,176439.82301328998
2543,119957.79731033664
2544,118829.18144272189
2545,130291.02472351413
2546,135220.3427090488
2547,127039.8211426578
2548,136971.59455107074
2549,161526.0717763744
2550,300909.3640999637
2551,146736.14893434863
2552,117038.09636162143
2553,76280.23722647052
2554,102321.18103454928
2555,113376.42413137775
2556,102922.93358229022
2557,111863.23776672702
2558,150558.31274841647
2559,154582.84245298724
2560,144559.00177000384
2561,147803.56349371295
2562,153213.34211538653
2563,161105.2330608211
2564,188993.4008998714
2565,155698.67181394916
2566,187621.16041754108
2567,138264.83476637225
2568,202156.44085119586
2569,204352.9628276668
2570,121604.49150656085
2571,193470.21370886188
2572,195399.21236465793
2573,223167.1828250728
2574,286491.33937643387
2575,121799.42812155109
2576,123134.33422659259
2577,148539.3364238582
2578,97106.04430387836
2579,80494.56937979083
2580,124844.74233816486
2581,122665.27930639606
2582,119408.21870420795
2583,303295.7775478206
2584,149319.64230774264
2585,164415.99222801547
2586,200460.7009072147
2587,179336.9896092258
2588,153190.7606701694
2589,141436.0240044437
2590,219340.41924332004
2591,212535.03238867145
2592,232574.97847603183
2593,251841.2399506412
2594,183869.20544670444
2595,201348.63833092074
2596,294666.45707558014
2597,184456.63262794833
2598,269676.0735916934
2599,318873.2131333194
2600,129781.40786741595
2601,139223.98457477908
2602,87339.08256338458
2603,95662.69124792438
2604,86663.37590025287
2605,80435.10314749103
2606,152091.50343559604
2607,167956.970642551
2608,193765.85668800693
2609,173500.30650518756
2610,117847.66631172519
2611,144917.36954496722
2612,148594.60604904513
2613,133310.77417991977
2614,129750.68225715976
2615,147778.18035553317
2616,137754.8165421329
2617,164739.72819755893
2618,171897.01838730197
2619,195764.28000305514
2620,188743.6821575008
2621,178604.7415776096
2622,186972.2976474605
2623,243239.2909641109
2624,274644.4128360591
2625,299352.27441213944
2626,164120.52523802142
2627,176635.57944677692
2628,454985.7309131465
2629,504119.90680120804
2630,405835.372388824
2631,484713.65455053665
2632,455306.1284274898
2633,359962.09862326004
2634,419757.1623248897
2635,157785.46637771945
2636,187678.76680992465
2637,172835.73148964267
2638,261676.32313345294
2639,196763.78977011066
2640,151392.95243881564
2641,109783.97088859897
2642,174112.45678947787
2643,105961.35773275714
2644,135927.14353178363
2645,105426.02828977923
2646,100331.23602865558
2647,100784.81884954791
2648,142016.91011665683
2649,153382.50400017123
2650,163415.90958450656
2651,138863.83115242343
2652,454693.9916705928
2653,254122.6319064937
2654,256928.46393011432
2655,365443.41024969437
2656,329822.4664554439
2657,361500.3268146358
2658,288633.62899587967
2659,341200.582330688
2660,320603.6185054622
2661,345310.0257358394
2662,360702.8030872188
2663,278914.5916843257
2664,285970.5238857112
2665,314477.2990512691
2666,291016.9880313716
2667,169078.2033004604
2668,175836.94481657367
2669,172152.31528662067
2670,286788.4825687251
2671,176642.10809324603
2672,182728.21057747226
2673,197776.8590836368
2674,195804.02262733798
2675,177892.46861313205
2676,186494.88934324603
2677,198290.11229894977
2678,242244.6691608272
2679,282535.1494889102
2680,278201.005514606
2681,472772.9877991519
2682,331237.0429634891
2683,585159.0389880977
2684,324627.40350960114
2685,353983.8095536075
2686,278054.53138922073
2687,316117.9182720027
2688,223904.58592413287
2689,214262.79843328815
2690,441828.5186290584
2691,191431.31695555072
2692,139447.1709327541
2693,185813.12502477985
2694,133035.02865980487
2695,184385.7797241054
2696,182347.16516111713
2697,179227.8488750301
2698,202307.06114385944
2699,177118.40067098956
2700,165115.743810638
2701,162737.8374976955
2702,112888.43311546664
2703,133100.8434829555
2704,141432.85407684665
2705,121328.48145721774
2706,118968.08659790378
2707,130336.1997074924
2708,130289.61468027454
2709,120260.39486549716
2710,125129.15241859775
2711,293695.76485441544
2712,400286.61596153595
2713,181172.51789282184
2714,159028.94835279803
2715,171137.9851550899
2716,158102.69924352985
2717,180277.14544294696
2718,228832.95033453326
2719,148690.24528358798
2720,173437.56300972324
2721,141949.93594406467
2722,158632.01056145053
2723,141070.15016411166
2724,131883.9483895145
2725,138511.9810433231
2726,145749.85566185336
2727,176789.8902001224
2728,163890.04265640597
2729,153627.78276632648
2730,146405.35288856845
2731,131774.22312401157
2732,129631.20744751315
2733,154477.15460441928
2734,147524.4854397617
2735,142035.6829647861
2736,140593.50372312884
2737,126772.23393867831
2738,126650.51545952182
2739,164743.67931793552
2740,131374.8171582065
2741,149445.73707245212
2742,151571.8612713657
2743,149874.7996697269
2744,151365.80571030002
2745,137078.63530014377
2746,138322.58021591525
2747,157534.8745803676
2748,131029.24406050067
2749,128586.45211456637
2750,136540.52555559497
2751,135078.1624250255
2752,207783.49476097446
2753,147290.34630249362
2754,175816.11328552585
2755,130057.01678465228
2756,96944.75235174518
2757,95510.88473318439
2758,85045.37276647906
2759,156608.9186038814
2760,115113.24192283969
2761,146954.82532928805
2762,145609.5966229282
2763,173326.01433227878
2764,173407.34803388934
2765,245065.66370628696
2766,144888.00846336703
2767,97185.34302328448
2768,124340.50232933383
2769,129505.47451828342
2770,147445.66780708652
2771,121238.58641289096
2772,123247.80150268893
2773,147061.22349737506
2774,135114.5989651523
2775,127554.52090118747
2776,142139.57400129657
2777,147626.66598890643
2778,114085.49434278827
2779,123089.94115112643
2780,95399.89931724887
2781,104058.69754455905
2782,94208.8389568172
2783,106975.20006368976
2784,126217.09717033725
2785,132266.030483707
2786,77947.8182296596
2787,110214.54503057819
2788,83491.54349754672
2789,176203.35653923373
2790,92750.33551023822
2791,110856.01726005893
2792,57645.53406332355
2793,158292.33221243243
2794,107043.41971586566
2795,115250.48015592914
2796,104767.25029562335
2797,163900.80564688068
2798,106947.51841925006
2799,110881.46289633136
2800,64710.84399221759
2801,105314.24273870807
2802,140777.35450027804
2803,131934.2630672298
2804,137357.07928846698
2805,93781.0293121181
2806,98248.58077810626
2807,155616.82225559573
2808,146367.6495537601
2809,130044.31192253451
2810,136961.8028225742
2811,142203.85990379672
2812,141828.94664238315
2813,135311.01176689487
2814,153862.10028122287
2815,114204.7181081615
2816,244292.54180620532
2817,155628.2269882999
2818,125453.71788595538
2819,176040.3910636745
2820,136510.06337784152
2821,97693.9814438663
2822,192482.34869001727
2823,267870.2880992732
2824,165212.88214538913
2825,139992.3757724605
2826,124619.84796379428
2827,131908.4854321323
2828,210893.71360586505
2829,174904.98775289874
2830,225801.65156410556
2831,183634.40078018527
2832,227599.6468949161
2833,304487.925184711
2834,214466.57388161044
2835,218800.7764878116
2836,191435.8111343227
2837,165823.70565079074
2838,145995.29596184116
2839,174415.48364637714
2840,195711.3556122623
2841,209123.5308518253
2842,233561.74613808017
2843,159297.36758230548
2844,159101.74646232944
2845,122375.90004967074
2846,209479.6063141666
2847,200233.34784553866
2848,215858.34103248935
2849,209520.35610817294
2850,263838.82256172516
2851,230706.43939064365
2852,228279.05992744784
2853,233870.6244530521
2854,144856.6584019504
2855,203822.47512863498
2856,212394.35975502353
2857,191435.8111343227
2858,204772.8310456119
2859,127359.48811910968
2860,122922.84584091525
2861,113389.33989380221
2862,174452.91757438998
2863,119350.84889076572
2864,220028.72553490024
2865,142483.55184267383
2866,144874.1506523929
2867,89156.43943022113
2868,95810.80055807452
2869,108025.81997154574
2870,131668.43265198093
2871,100896.55348442416
2872,61245.9031276546
2873,109276.08844946246
2874,135677.27058647494
2875,117808.44022367816
2876,145742.31820677142
2877,146504.75959776263
2878,184113.43166921954
2879,135560.9949631534
2880,109721.03676079135
2881,165950.14386604648
2882,183694.1287097774
2883,188103.7198238216
2884,190853.08404920917
2885,188058.86408279758
2886,217820.98108862262
2887,99556.27702329974
2888,121659.91140554767
2889,58119.672040923644
2890,80086.02979276996
2891,132714.36743734698
2892,60396.46583364825
2893,96374.65336607318
2894,53013.60590933185
2895,354416.36353872635
2896,290094.6419658504
2897,192251.65508888583
2898,147992.1909890018
2899,215687.4068054996
2900,156749.0955681644
2901,218255.51272056918
2902,180685.2873158298
2903,350600.7907318912
2904,358220.8148217044
2905,107368.34855650287
2906,197071.32436321597
2907,111257.98548887591
2908,137244.0895085178
2909,146196.3265900455
2910,81166.99484251361
2911,86070.7082347713
2912,141874.32433174472
2913,85079.90904043536
2914,78598.98200796466
2915,83693.77426908832
2916,82221.29401968341
2917,152437.1300968967
2918,120979.1313443027
2919,193710.80055855136
